Chapter 4 Data Input Testing | A Metanalysis of Beaver Translocation Methods to Inform Establishment Success and Beaver Management Policy
…
4.1 Load Raw Data from Survey

## ── Attaching packages ───── tidyverse 1.3.2 ──
## ✔ ggplot2 3.3.6     ✔ purrr   0.3.4
## ✔ tibble  3.1.8     ✔ dplyr   1.0.9
## ✔ tidyr   1.2.0     ✔ stringr 1.4.1
## ✔ readr   2.1.2     ✔ forcats 0.5.2
## ── Conflicts ──────── tidyverse_conflicts() ──
## ✖ dplyr::filter() masks stats::filter()
## ✖ dplyr::lag()    masks stats::lag()

RawData_test <- readxl::read_excel ("~/MASTERS/Bookdown/GoogleFormRespTEST.xlsx")
RawData_test

## # A tibble: 22 × 110
##    Timestamp           Email A…¹ What …² What …³ What …⁴ If no…⁵ What …⁶ What …⁷
##    <dttm>              <chr>     <chr>   <chr>   <chr>   <chr>   <chr>   <chr>  
##  1 2023-03-28 07:39:33 travis.c… Travis… Habita… State/… NA      WY Gam… NA     
##  2 2022-11-29 10:12:27 jerry.al… Gerard… Biolog… State   n/a     Wyomin… <NA>   
##  3 2023-03-24 14:14:43 dcollins… Dylan … Assist… Tribal  <NA>    The Tu… Tulali…
##  4 2023-03-28 08:33:57 charnna@… Charnn… Execut… Non-pr… 501c3   Scott … N/A    
##  5 2023-03-28 08:40:16 rschicks… Rachel… Presid… Non-pr… fiscal… Illino… n/a    
##  6 2023-03-28 09:42:33 matt.pro… Matt P… Region… State/… <NA>    Idaho … Upper …
##  7 2023-03-28 11:44:46 loren.ta… Loren … Wildli… Part-t… <NA>    Beaver… NA     
##  8 2023-03-28 15:55:18 caristuc… Caroli… Gradua… UC Dav… <NA>    UC Dav… NA     
##  9 2023-03-29 08:51:16 sahill@u… Shane … Habita… State/… <NA>    Utah D… Northe…
## 10 2023-03-29 10:29:14 teresagr… Teresa… Wildli… State/… <NA>    Utah D… Southe…
## # … with 12 more rows, 102 more variables:
## #   `Are you the project lead for the  beaver translocations?` <chr>,
## #   `If no, or co-lead, who is the project lead/co-lead?` <chr>,
## #   `Where is your project located (ex: name of City, County, State, Province, Country, Watershed, etc...)?` <chr>,
## #   `Does your project employ seasonal or permanent staff (check all that apply)?` <chr>,
## #   `What is the population status of beavers in your area?` <chr>,
## #   `Does your jurisdiction allow for the translocation of beavers?` <chr>, …

4.2 responses

Responses_test <- readxl::read_excel ("~/MASTERS/Bookdown/Responses.xlsx")
Responses_test

## # A tibble: 22 × 2
##    resp_id proj_id   
##    <chr>   <chr>     
##  1 resp_1  NA        
##  2 resp_2  NA        
##  3 resp_3  US_47_TBP 
##  4 resp_4  NA        
##  5 resp_5  NA        
##  6 resp_6  US_12_USBC
##  7 resp_7  NA        
##  8 resp_8  NA        
##  9 resp_9  US_44_NURR
## 10 resp_10 US_44_SURR
## # … with 12 more rows

4.3 projects

Projects_test <- readxl::read_excel ("~/MASTERS/Bookdown/Projects.xlsx")
Projects_test

## # A tibble: 22 × 9
##    proj_id    proj_email proj_…¹ proj_…² proj_…³ proj_…⁴ proj_…⁵ proj_…⁶ proj_…⁷
##    <chr>      <chr>      <chr>   <chr>   <chr>   <chr>   <chr>   <chr>   <chr>  
##  1 NA         travis.cu… Travis… State/… NA      NA      Lead w… <NA>    Sherid…
##  2 NA         jerry.alt… Gerard… State   n/a     <NA>    I am t… <NA>    Cody R…
##  3 US_47_TBP  dcollins@… Dylan … Tribal  <NA>    Tulali… No      Molly … Wester…
##  4 NA         charnna@s… Charnn… Non-pr… 501c3   N/A     N/A     <NA>    <NA>   
##  5 NA         rschicksi… Rachel… Non-pr… fiscal… n/a     Yes     <NA>    Illino…
##  6 US_12_USBC matt.proe… Matt P… State/… <NA>    Upper … Co-lead Matt P… Idaho …
##  7 NA         loren.tay… Loren … Part-t… <NA>    NA      No      Cody P… Wyoming
##  8 NA         caristucc… Caroli… UC Dav… <NA>    NA      <NA>    <NA>    Tehama…
##  9 US_44_NURR sahill@ut… Shane … State/… <NA>    Northe… Yes     <NA>    Northe…
## 10 US_44_SURR teresagri… Teresa… State/… <NA>    Southe… Co-lead Mindi … Southe…
## # … with 12 more rows, and abbreviated variable names ¹​proj_name, ²​proj_agency,
## #   ³​proj_501c3, ⁴​proj_called, ⁵​proj_lead, ⁶​proj_lead_alt, ⁷​proj_location

4.4 questions

Questions_test <- readxl::read_excel ("~/MASTERS/Bookdown/Questions.xlsx")
Questions_test

## # A tibble: 99 × 3
##    quest_id quest_type questions            
##    <chr>    <chr>      <chr>                
##  1 Q1       ca         proj_staffing        
##  2 Q2       mc         proj_loc_beaverpop   
##  3 Q3       mc         proj_juris_allow     
##  4 Q4       mc         proj_juris_allow_time
##  5 Q5       mc         exp_level            
##  6 Q6       text       exp_years            
##  7 Q7       mc         exp_training         
##  8 Q8       text       exp_who_trained      
##  9 Q9       mc         partners_have        
## 10 Q10      text       partners_who         
## # … with 89 more rows

4.5 answers_text

Answers_text_test <- readxl::read_excel ("~/MASTERS/Bookdown/Answers_text.xlsx")
Answers_text_test

## # A tibble: 748 × 4
##    text_id answer                                                resp_id quest…¹
##    <chr>   <chr>                                                 <chr>   <chr>  
##  1 text_1  >10                                                   resp_1  Q6     
##  2 text_2  5                                                     resp_2  Q6     
##  3 text_3  3                                                     resp_3  Q6     
##  4 text_4  Less than two weeks                                   resp_4  Q6     
##  5 text_5  Less than one                                         resp_5  Q6     
##  6 text_6  6                                                     resp_6  Q6     
##  7 text_7  I have not personally translocated any beavers.       resp_7  Q6     
##  8 text_8  <NA>                                                  resp_8  Q6     
##  9 text_9  4                                                     resp_9  Q6     
## 10 text_10 5+ in supervisory role, previously, I supervised the… resp_10 Q6     
## # … with 738 more rows, and abbreviated variable name ¹​quest_id

4.6 combining tables

Combining Answers_text_test to Questions using key quest_id and Responses using key resp_id.

Comb_test <- Answers_text_test %>%
  left_join(Questions_test, by = "quest_id") %>%
  left_join(Responses_test, by = "resp_id")

Comb_test

## # A tibble: 748 × 7
##    text_id answer                        resp_id quest…¹ quest…² quest…³ proj_id
##    <chr>   <chr>                         <chr>   <chr>   <chr>   <chr>   <chr>  
##  1 text_1  >10                           resp_1  Q6      text    exp_ye… NA     
##  2 text_2  5                             resp_2  Q6      text    exp_ye… NA     
##  3 text_3  3                             resp_3  Q6      text    exp_ye… US_47_…
##  4 text_4  Less than two weeks           resp_4  Q6      text    exp_ye… NA     
##  5 text_5  Less than one                 resp_5  Q6      text    exp_ye… NA     
##  6 text_6  6                             resp_6  Q6      text    exp_ye… US_12_…
##  7 text_7  I have not personally transl… resp_7  Q6      text    exp_ye… NA     
##  8 text_8  <NA>                          resp_8  Q6      text    exp_ye… NA     
##  9 text_9  4                             resp_9  Q6      text    exp_ye… US_44_…
## 10 text_10 5+ in supervisory role, prev… resp_10 Q6      text    exp_ye… US_44_…
## # … with 738 more rows, and abbreviated variable names ¹​quest_id, ²​quest_type,
## #   ³​questions

Combining new Comb_test to Comb_test2 to include Projects using key proj_id.

Comb_test2 <- Comb_test %>%
  left_join(Projects_test, by = "proj_id")

Comb_test2

## # A tibble: 3,808 × 15
##    text_id answer resp_id quest_id quest_type questions proj_id proj_e…¹ proj_…²
##    <chr>   <chr>  <chr>   <chr>    <chr>      <chr>     <chr>   <chr>    <chr>  
##  1 text_1  >10    resp_1  Q6       text       exp_years NA      travis.… Travis…
##  2 text_1  >10    resp_1  Q6       text       exp_years NA      jerry.a… Gerard…
##  3 text_1  >10    resp_1  Q6       text       exp_years NA      charnna… Charnn…
##  4 text_1  >10    resp_1  Q6       text       exp_years NA      rschick… Rachel…
##  5 text_1  >10    resp_1  Q6       text       exp_years NA      loren.t… Loren …
##  6 text_1  >10    resp_1  Q6       text       exp_years NA      caristu… Caroli…
##  7 text_1  >10    resp_1  Q6       text       exp_years NA      thkelle… Thomas…
##  8 text_1  >10    resp_1  Q6       text       exp_years NA      dan.zad… Dan Za…
##  9 text_1  >10    resp_1  Q6       text       exp_years NA      jamie.u… Jamie …
## 10 text_1  >10    resp_1  Q6       text       exp_years NA      jakob@p… Jakob …
## # … with 3,798 more rows, 6 more variables: proj_agency <chr>,
## #   proj_501c3 <chr>, proj_called <chr>, proj_lead <chr>, proj_lead_alt <chr>,
## #   proj_location <chr>, and abbreviated variable names ¹​proj_email, ²​proj_name
…
